{
    "key": "group_5b69b607e03f1",
    "title": "Discounts",
    "fields": [
        {
            "key": "field_5b69b607e2bd7",
            "label": "Discount Type",
            "name": "discount_type",
            "type": "text",
            "instructions": "",
            "required": 0,
            "conditional_logic": 0,
            "wrapper": {
                "width": "25",
                "class": "",
                "id": ""
            },
            "default_value": "",
            "placeholder": "Discount Provider",
            "prepend": "",
            "append": "",
            "maxlength": ""
        },
        {
            "key": "field_5b69b607e2c9b",
            "label": "Discount \/ Offer",
            "name": "discount_offer",
            "type": "text",
            "instructions": "",
            "required": 0,
            "conditional_logic": 0,
            "wrapper": {
                "width": "25",
                "class": "",
                "id": ""
            },
            "default_value": "",
            "placeholder": "",
            "prepend": "",
            "append": "",
            "maxlength": ""
        },
        {
            "key": "field_5b69b607e2d71",
            "label": "Expiration date",
            "name": "expiration_date",
            "type": "date_picker",
            "instructions": "This will display in the format of:  January 1, 2018",
            "required": 0,
            "conditional_logic": 0,
            "wrapper": {
                "width": "25",
                "class": "",
                "id": ""
            },
            "display_format": "d\/m\/Y",
            "return_format": "d\/m\/Y",
            "first_day": 0
        },
        {
            "key": "field_5b69b607e319f",
            "label": "Discount Link",
            "name": "discount_link",
            "type": "url",
            "instructions": "",
            "required": 0,
            "conditional_logic": 0,
            "wrapper": {
                "width": "25",
                "class": "",
                "id": ""
            },
            "default_value": "",
            "placeholder": ""
        }
    ],
    "location": [
        [
            {
                "param": "post_type",
                "operator": "==",
                "value": "discount"
            }
        ]
    ],
    "menu_order": 0,
    "position": "normal",
    "style": "default",
    "label_placement": "top",
    "instruction_placement": "label",
    "hide_on_screen": "",
    "active": 1,
    "description": "",
    "modified": 1535135768
}