{
    "key": "group_5b4e4d17c6164",
    "title": "Paragraph Below Main Header",
    "fields": [
        {
            "key": "field_5b4e4ef359b57",
            "label": "Intro Header",
            "name": "intro_header",
            "type": "text",
            "instructions": "",
            "required": 0,
            "conditional_logic": 0,
            "wrapper": {
                "width": "20",
                "class": "",
                "id": ""
            },
            "default_value": "",
            "placeholder": "",
            "prepend": "",
            "append": "",
            "maxlength": ""
        },
        {
            "key": "field_5b4e4d2cee323",
            "label": "Intro Paragraph",
            "name": "intro_paragraph",
            "type": "textarea",
            "instructions": "",
            "required": 0,
            "conditional_logic": 0,
            "wrapper": {
                "width": "40",
                "class": "",
                "id": ""
            },
            "default_value": "",
            "placeholder": "",
            "maxlength": "",
            "rows": 4,
            "new_lines": ""
        },
        {
            "key": "field_5b4e4d6d1e64d",
            "label": "Intro Paragraph 2",
            "name": "intro_paragraph_two",
            "type": "textarea",
            "instructions": "",
            "required": 0,
            "conditional_logic": 0,
            "wrapper": {
                "width": "40",
                "class": "",
                "id": ""
            },
            "default_value": "",
            "placeholder": "",
            "maxlength": "",
            "rows": 4,
            "new_lines": ""
        }
    ],
    "location": [
        [
            {
                "param": "page_template",
                "operator": "==",
                "value": "front-page.php"
            }
        ],
        [
            {
                "param": "page_template",
                "operator": "==",
                "value": "financial-page.php"
            }
        ],
        [
            {
                "param": "page_template",
                "operator": "==",
                "value": "physical-page.php"
            }
        ],
        [
            {
                "param": "page_template",
                "operator": "==",
                "value": "emotional-page.php"
            }
        ],
        [
            {
                "param": "page_template",
                "operator": "==",
                "value": "nutritional-page.php"
            }
        ]
    ],
    "menu_order": 0,
    "position": "normal",
    "style": "default",
    "label_placement": "top",
    "instruction_placement": "label",
    "hide_on_screen": "",
    "active": 1,
    "description": "",
    "modified": 1535135739
}