<?xml version="1.0" encoding="UTF-8"?>
<svg width="24px" height="25px" viewBox="0 0 24 25" version="1.1" xmlns="http://www.w3.org/2000/svg" xmlns:xlink="http://www.w3.org/1999/xlink">
    <!-- Generator: Sketch 51.1 (57501) - http://www.bohemiancoding.com/sketch -->
    <title>Fill 1</title>
    <desc>Created with Sketch.</desc>
    <defs></defs>
    <g id="Symbols" stroke="none" stroke-width="1" fill="none" fill-rule="evenodd">
        <g id="Site-Elements/Footer" transform="translate(-923.000000, -281.000000)" fill="#FFFFFF">
            <g id="Group-2" transform="translate(860.000000, 281.000000)">
                <path d="M85.666427,0 L64.3240449,0 C63.5927191,0 63,0.59430816 63,1.32759466 L63,22.7271949 C63,23.4603912 63.5927191,24.0548797 64.3240449,24.0548797 L75.8141124,24.0548797 L75.8141124,14.7395454 L72.6876404,14.7395454 L72.6876404,11.1091643 L75.8141124,11.1091643 L75.8141124,8.43189348 C75.8141124,5.32497949 77.7066067,3.63317505 80.4708315,3.63317505 C81.7949663,3.63317505 82.9329438,3.73195602 83.2645393,3.77611905 L83.2645393,7.02309293 L81.3474157,7.02399422 C79.8441348,7.02399422 79.5529888,7.74024641 79.5529888,8.79132645 L79.5529888,11.1091643 L83.1383371,11.1091643 L82.6715506,14.7395454 L79.5529888,14.7395454 L79.5529888,24.0548797 L85.666427,24.0548797 C86.3976629,24.0548797 86.9904719,23.4603912 86.9904719,22.7271949 L86.9904719,1.32759466 C86.9904719,0.59430816 86.3976629,0 85.666427,0" id="Fill-1"></path>
            </g>
        </g>
    </g>
</svg>