<?xml version="1.0" encoding="UTF-8"?>
<svg width="60px" height="60px" viewBox="0 0 60 60" version="1.1" xmlns="http://www.w3.org/2000/svg" xmlns:xlink="http://www.w3.org/1999/xlink">
    <!-- Generator: Sketch 51.1 (57501) - http://www.bohemiancoding.com/sketch -->
    <title>Combined Shape</title>
    <desc>Created with Sketch.</desc>
    <defs></defs>
    <g id="Page-Designs" stroke="none" stroke-width="1" fill="none" fill-rule="evenodd">
        <g id="Financial-Health" transform="translate(-690.000000, -913.000000)" fill="#BDBF42">
            <path d="M749.276857,944.471234 L748.725749,944.628375 L748.591696,944.764662 L748.327313,945.32992 L748.056228,945.963694 L747.513312,946.143921 L747.287656,946.460436 L746.835599,947.274437 L746.021597,947.545522 L745.750512,948.26941 L745.478682,948.178551 L744.800968,949.037982 L744.619996,949.489294 L743.851424,949.986781 L743.670452,950.348725 L742.976354,950.435859 L742.657606,950.756842 L742.268851,951.750326 L741.758704,951.665425 L741.716999,951.707131 L741.591138,952.337926 L740.821821,953.197356 L740.731707,953.28747 L740.008565,954.101471 L739.601192,953.965928 L739.013592,954.643642 L738.608453,954.846211 L738.216719,955.241668 L738.154906,955.321355 L737.748278,956.18153 L737.060138,956.410166 L736.912679,956.559114 L736.888848,956.679017 L736.43679,957.13033 L736.130702,957.349283 L733.966487,959.535096 L733.81456,960.295476 L733.498045,960.431018 L732.548501,961.018619 L732.373487,961.143735 L731.04785,962.482778 L730.649414,963.27965 L729.880842,963.957364 L729.564327,964.183765 L729.022156,964.906163 L728.573078,964.981381 L728.439769,965.116924 L728.343698,965.403649 L727.756098,966.172966 L727.439583,966.488736 L726.761869,966.986222 L726.399926,967.258053 L726.212251,967.36604 L724.848632,968.743809 L724.455409,969.201825 L724.319866,969.789425 L723.673431,969.930181 L723.21765,970.391175 L723.190095,970.557997 L722.782722,971.055483 L722.376094,971.643083 L722.105008,971.733197 L721.697635,972.321542 L721.200149,972.547198 L720.250605,972.863713 L720.173897,972.710296 L719.794824,972.909142 L719.342767,973 L718.528766,972.276112 L718.347794,971.643083 L717.67008,971.327313 L717.036306,971.055483 L716.856079,970.513312 L716.539564,970.286911 L715.725563,969.834854 L715.454478,969.021597 L714.73059,968.749767 L714.821449,968.477937 L713.962763,967.800223 L713.509961,967.619252 L713.013219,966.851424 L712.651275,966.670452 L712.561162,965.946565 L712.289332,965.675479 L711.249674,965.268851 L711.340532,964.725936 L710.662074,964.590393 L709.802644,963.821076 L709.71253,963.730963 L708.898529,963.00782 L709.034072,962.601192 L708.356358,962.013592 L708.084528,961.470676 L707.6779,961.154161 L706.819214,960.746788 L706.547384,959.933532 L706.321728,959.888103 L705.86967,959.43679 L705.417613,958.803016 L704.874697,958.170732 L704.603612,957.989015 L703.608639,956.994787 L702.704524,956.813815 L702.568982,956.4973 L701.981381,955.547756 L701.75498,955.231242 L701.21281,954.689071 L700.986408,954.282443 L699.72035,953.648669 L699.042636,952.880842 L698.81698,952.563582 L698.093093,952.021411 L698.002234,951.47924 L697.595606,951.343698 L696.827034,950.755353 L696.510519,950.439583 L696.013033,949.761125 L695.742692,949.399181 L695.245206,948.540495 L695.018805,948.495066 L694.43046,947.99758 L693.798175,947.455409 L693.210575,947.319866 L692.984174,946.280209 L692.442003,946.18935 L691.944517,945.782722 L691.356917,945.375349 L691.266058,945.104264 L690.678458,944.697635 L690.452802,944.200149 L690.135543,943.24986 L690.531,943.053249 L690.317259,942.839508 L690,942.16105 L690.85943,941.57345 L691.175945,941.437907 L691.49246,940.578477 L691.808974,940.171849 L692.622975,939.900019 L692.93949,939.49339 L693.436976,939.177621 L693.888289,938.092534 L694.340346,937.911562 L694.792404,937.549618 L695.245206,937.007447 L695.787377,936.645504 L696.059207,935.922361 L696.374977,935.605846 L697.008006,935.062931 L697.460063,934.972817 L697.867436,934.655558 L698.364178,933.796872 L699.042636,933.299386 L699.584807,933.029045 L699.766524,932.395271 L700.354124,932.16887 L700.398808,931.672128 L701.302923,931.310184 L701.439211,930.451499 L702.026811,930.6779 L702.388754,929.592069 L702.840067,929.411097 L703.518525,929.186185 L704.061441,928.462298 L704.016012,928.145783 L704.649041,927.783839 L705.507727,927.106125 L705.734128,926.879724 L706.050642,925.930181 L706.411841,926.111152 L706.773785,925.38801 L707.135729,924.845094 L707.948985,924.393037 L708.53733,923.986408 L708.808416,923.89555 L709.169615,922.901322 L709.621672,922.449265 L710.210017,922.222864 L710.571216,921.499721 L710.93316,921.228635 L711.340532,920.731149 L711.928133,920.776578 L712.018246,919.962577 L712.786818,919.194005 L713.600819,918.922175 L713.917334,918.787377 L714.233848,918.108918 L714.685906,917.837088 L715.092534,917.339602 L715.545336,917.159374 L715.725563,916.345373 L716.268479,915.62223 L716.720536,915.3504 L717.489108,914.672687 L717.851052,914.220629 L718.031279,914.130516 L718.709737,913.813256 L719.070937,913.361944 L720.111339,913.135543 L720.194005,913.300875 L720.838205,913 L721.42655,913.85943 L721.562093,914.1752 L722.420778,914.491715 L722.828151,914.808229 L723.099237,915.62223 L723.505865,915.938 L723.679389,916.212065 L723.967604,916.496556 L724.907466,916.888289 L725.088438,917.339602 L725.450382,917.792404 L725.992553,918.244461 L726.354496,918.787377 L727.077639,919.058462 L727.394154,919.374977 L727.937069,920.007261 L728.027183,920.460063 L728.217837,920.704338 L728.434556,920.919568 L729.202383,921.364178 L729.69987,922.041892 L729.82871,922.299572 L730.175759,922.642897 L730.603984,922.765034 L730.791659,923.253584 L730.898902,923.359337 L731.327872,923.398064 L731.582573,924.037051 L731.882703,924.333457 L732.548501,924.438466 L732.39434,924.839881 L732.714578,925.156395 L733.407187,925.38801 L733.588159,925.840067 L733.679017,926.111897 L734.624837,927.048036 L734.854217,927.016012 L735.196798,927.614038 L736.431577,928.837647 L737.069075,929.049898 L736.929063,929.32992 L737.137591,929.535468 L737.61199,929.773785 L738.154906,930.134984 L738.606963,930.948985 L738.699311,931.082294 L739.622789,931.99609 L740.098678,932.169615 L740.550735,932.621672 L740.733197,933.096816 L740.919382,933.280767 L741.500279,933.571216 L741.771365,933.93316 L742.268851,934.339788 L742.248743,934.596723 L742.627816,934.972072 L743.037423,935.018246 L743.805995,935.786818 L743.981754,936.312605 L746.350028,938.657047 L746.654627,938.724818 L747.37777,939.267734 L747.648855,939.719791 L748.327313,940.488363 L748.779371,940.850307 L748.869484,941.031279 L749.03854,941.392478 C749.113759,941.505679 749.178551,941.625582 749.235152,941.748464 L749.638056,942.070192 L749.864457,943.110594 L749.860734,943.112828 L749.909142,943.205176 L750,943.657233 L749.276857,944.471234 Z M730.074627,948.019212 C730.074627,944.582077 728.294565,942.777693 724.290177,941.926992 L719.60138,940.906149 C718.643058,940.700936 718.300854,940.327075 718.300854,939.545026 L718.300854,938.897299 C718.300854,938.080923 718.84793,937.570502 719.771731,937.570502 L721.415212,937.570502 C722.339013,937.570502 722.92136,937.97869 723.263564,939.101766 L726.138529,939.101766 L729.800713,935.494491 C728.568478,933.6222 726.994039,932.22675 723.605768,932.22675 L721.552544,932.22675 L721.552544,930.014925 L718.882451,930.014925 L718.882451,932.22675 L718.060711,932.22675 C713.919741,932.22675 711.215128,934.847509 711.215128,938.830138 L711.215128,939.545026 C711.215128,942.879181 713.02971,944.888031 716.896767,945.704407 L721.620084,946.725995 C722.579156,946.929716 722.955881,947.304323 722.955881,948.087118 L722.955881,948.869913 C722.955881,949.857176 722.441824,950.33327 721.483503,950.33327 L719.361987,950.33327 C718.300854,950.33327 717.753027,949.890756 717.13691,948.835587 L714.364006,948.835587 L711.044776,952.137654 C712.139679,954.213665 713.954262,955.711348 717.102389,955.711348 L718.882451,955.711348 L718.882451,958.671642 L721.552544,958.671642 L721.552544,955.711348 L723.194523,955.711348 C727.336994,955.711348 730.074627,953.056263 730.074627,948.93782 L730.074627,948.019212 Z" id="Combined-Shape" style="mix-blend-mode: multiply;"></path>
        </g>
    </g>
</svg>